<svg class="lds-message" width="100%" height="100%" xmlns="http://www.w3.org/2000/svg" xmlns:xlink="http://www.w3.org/1999/xlink" viewBox="0 0 100 100" preserveAspectRatio="xMidYMid"><g transform="translate(25 50)">
<circle cx="0" cy="0" r="10" fill="#000bff" transform="scale(0.375239 0.375239)">
  <animateTransform attributeName="transform" type="scale" begin="-0.39999999999999997s" calcMode="spline" keySplines="0.3 0 0.7 1;0.3 0 0.7 1" values="0;1;0" keyTimes="0;0.5;1" dur="1.2s" repeatCount="indefinite"></animateTransform>
</circle>
</g><g transform="translate(50 50)">
<circle cx="0" cy="0" r="10" fill="#279dff" transform="scale(0.0225479 0.0225479)">
  <animateTransform attributeName="transform" type="scale" begin="-0.19999999999999998s" calcMode="spline" keySplines="0.3 0 0.7 1;0.3 0 0.7 1" values="0;1;0" keyTimes="0;0.5;1" dur="1.2s" repeatCount="indefinite"></animateTransform>
</circle>
</g><g transform="translate(75 50)">
<circle cx="0" cy="0" r="10" fill="#9500e2" transform="scale(0.167509 0.167509)">
  <animateTransform attributeName="transform" type="scale" begin="0s" calcMode="spline" keySplines="0.3 0 0.7 1;0.3 0 0.7 1" values="0;1;0" keyTimes="0;0.5;1" dur="1.2s" repeatCount="indefinite"></animateTransform>
</circle>
</g></svg>